^D:\UNI\GAME BUILD\SDL2-COLLISIONDETECTION\WINDOWS-VS2019\SDL2-PROJECT\X64\DEBUG\AABB.OBJ|D:\UNI\GAME BUILD\SDL2-COLLISIONDETECTION\WINDOWS-VS2019\SDL2-PROJECT\X64\DEBUG\ANIMATION.OBJ|D:\UNI\GAME BUILD\SDL2-COLLISIONDETECTION\WINDOWS-VS2019\SDL2-PROJECT\X64\DEBUG\BULLET.OBJ|D:\UNI\GAME BUILD\SDL2-COLLISIONDETECTION\WINDOWS-VS2019\SDL2-PROJECT\X64\DEBUG\GAME.OBJ|D:\UNI\GAME BUILD\SDL2-COLLISIONDETECTION\WINDOWS-VS2019\SDL2-PROJECT\X64\DEBUG\MAIN.OBJ|D:\UNI\GAME BUILD\SDL2-COLLISIONDETECTION\WINDOWS-VS2019\SDL2-PROJECT\X64\DEBUG\NPC.OBJ|D:\UNI\GAME BUILD\SDL2-COLLISIONDETECTION\WINDOWS-VS2019\SDL2-PROJECT\X64\DEBUG\PLAYER.OBJ|D:\UNI\GAME BUILD\SDL2-COLLISIONDETECTION\WINDOWS-VS2019\SDL2-PROJECT\X64\DEBUG\SPRITE.OBJ|D:\UNI\GAME BUILD\SDL2-COLLISIONDETECTION\WINDOWS-VS2019\SDL2-PROJECT\X64\DEBUG\STORYMANAGER.OBJ|D:\UNI\GAME BUILD\SDL2-COLLISIONDETECTION\WINDOWS-VS2019\SDL2-PROJECT\X64\DEBUG\TEXTUREUTILS.OBJ|D:\UNI\GAME BUILD\SDL2-COLLISIONDETECTION\WINDOWS-VS2019\SDL2-PROJECT\X64\DEBUG\VECTOR2F.OBJ
/OUT:"D:\UNI\GAME BUILD\SDL2-COLLISIONDETECTION\WINDOWS-VS2019\X64\DEBUG\SDL2-PROJECT.EXE" /INCREMENTAL /NOLOGO /LIBPATH:"D:\UNI\GAME BUILD\SDL2-COLLISIONDETECTION\WINDOWS-VS2019\SDL2-PROJECT\LIBS\SDL2_IMAGE-2.0.3\LIB\X64" /LIBPATH:"D:\UNI\GAME BUILD\SDL2-COLLISIONDETECTION\WINDOWS-VS2019\SDL2-PROJECT\LIBS\SDL2-2.0.10\LIB\X64" SDL2.LIB SDL2MAIN.LIB SDL2_IMAGE.LIB KERNEL32.LIB USER32.LIB GDI32.LIB WINSPOOL.LIB COMDLG32.LIB ADVAPI32.LIB SHELL32.LIB OLE32.LIB OLEAUT32.LIB UUID.LIB ODBC32.LIB ODBCCP32.LIB KERNEL32.LIB USER32.LIB GDI32.LIB WINSPOOL.LIB COMDLG32.LIB ADVAPI32.LIB SHELL32.LIB OLE32.LIB OLEAUT32.LIB UUID.LIB ODBC32.LIB ODBCCP32.LIB /MANIFEST /MANIFESTUAC:"level='asInvoker' uiAccess='false'" /manifest:embed /DEBUG:FASTLINK /PDB:"D:\UNI\GAME BUILD\SDL2-COLLISIONDETECTION\WINDOWS-VS2019\X64\DEBUG\SDL2-PROJECT.PDB" /SUBSYSTEM:CONSOLE /TLBID:1 /DYNAMICBASE /NXCOMPAT /IMPLIB:"D:\UNI\GAME BUILD\SDL2-COLLISIONDETECTION\WINDOWS-VS2019\X64\DEBUG\SDL2-PROJECT.LIB" /MACHINE:X64 X64\DEBUG\AABB.OBJ
X64\DEBUG\ANIMATION.OBJ
X64\DEBUG\BULLET.OBJ
X64\DEBUG\GAME.OBJ
X64\DEBUG\MAIN.OBJ
X64\DEBUG\NPC.OBJ
X64\DEBUG\PLAYER.OBJ
X64\DEBUG\SPRITE.OBJ
X64\DEBUG\STORYMANAGER.OBJ
X64\DEBUG\TEXTUREUTILS.OBJ
X64\DEBUG\VECTOR2F.OBJ
